-------------------------------------------------------------------------------
Test set: org.ownit.user.ApplicationTest
-------------------------------------------------------------------------------
Tests run: 1, Failures: 0, Errors: 0, Skipped: 0, Time elapsed: 0.028 s - in org.ownit.user.ApplicationTest
